{
  "items": [
    {
      "id": "550e8400-e29b-41d4-a716-446655440000",
      "email": "admin@bagtrip.com",
      "created_at": "2024-01-10T08:00:00.000Z",
      "updated_at": "2024-01-15T10:30:00.000Z"
    },
    {
      "id": "550e8400-e29b-41d4-a716-446655440001",
      "email": "user1@example.com",
      "created_at": "2024-01-11T09:00:00.000Z",
      "updated_at": "2024-01-12T14:20:00.000Z"
    },
    {
      "id": "550e8400-e29b-41d4-a716-446655440002",
      "email": "user2@example.com",
      "created_at": "2024-01-12T10:00:00.000Z",
      "updated_at": null
    },
    {
      "id": "550e8400-e29b-41d4-a716-446655440003",
      "email": "traveler@bagtrip.com",
      "created_at": "2024-01-13T11:00:00.000Z",
      "updated_at": "2024-01-14T16:45:00.000Z"
    },
    {
      "id": "550e8400-e29b-41d4-a716-446655440004",
      "email": "business@company.com",
      "created_at": "2024-01-14T12:00:00.000Z",
      "updated_at": null
    }
  ],
  "total": 25,
  "page": 1,
  "limit": 10,
  "total_pages": 3
}
